Copyright 1986-2014 Xilinx, Inc. All Rights Reserved.
-------------------------------------------------------------------------------------------------------------------------------
| Tool Version     : Vivado v.2014.4 (lin64) Build 1071353 Tue Nov 18 16:47:07 MST 2014
| Date             : Tue Jul 14 09:45:05 2015
| Host             : ubuntu running 64-bit Ubuntu 14.04.2 LTS
| Command          : report_power -file design_1_wrapper_power_routed.rpt -pb design_1_wrapper_power_summary_routed.pb
| Design           : design_1_wrapper
| Device           : xc7z010clg400-1
| Design State     : Routed
| Grade            : commercial
| Process          : typical
| Characterization : Production
-------------------------------------------------------------------------------------------------------------------------------

Power Report

Table of Contents
-----------------
1. Summary
1.1 On-Chip Components
1.2 Power Supply Summary
1.3 Confidence Level
2. Settings
2.1 Environment
2.2 Clock Constraints
3. Detailed Reports
3.1 By Hierarchy

1. Summary
----------

+--------------------------+-------+
| Total On-Chip Power (W)  | 1.732 |
| Dynamic (W)              | 1.599 |
| Device Static (W)        | 0.133 |
| Effective TJA (C/W)      | 11.5  |
| Max Ambient (C)          | 65.0  |
| Junction Temperature (C) | 45.0  |
| Confidence Level         | Low   |
| Setting File             | ---   |
| Simulation Activity File | ---   |
| Design Nets Matched      | NA    |
+--------------------------+-------+


1.1 On-Chip Components
----------------------

+--------------------------+-----------+----------+-----------+-----------------+
| On-Chip                  | Power (W) | Used     | Available | Utilization (%) |
+--------------------------+-----------+----------+-----------+-----------------+
| Clocks                   |     0.017 |        3 |       --- |             --- |
| Slice Logic              |     0.007 |    10929 |       --- |             --- |
|   LUT as Logic           |     0.006 |     3840 |     17600 |           21.81 |
|   CARRY4                 |    <0.001 |      154 |      4400 |            3.50 |
|   Register               |    <0.001 |     5238 |     35200 |           14.88 |
|   LUT as Shift Register  |    <0.001 |      181 |      6000 |            3.01 |
|   LUT as Distributed RAM |    <0.001 |       18 |      6000 |            0.30 |
|   F7/F8 Muxes            |    <0.001 |        3 |     17600 |            0.01 |
|   Others                 |     0.000 |      642 |       --- |             --- |
| Signals                  |     0.008 |     8654 |       --- |             --- |
| Block RAM                |     0.003 |        2 |        60 |            3.33 |
| DSPs                     |     0.004 |       15 |        80 |           18.75 |
| PS7                      |     1.560 |        1 |       --- |             --- |
| Static Power             |     0.133 |          |           |                 |
| Total                    |     1.732 |          |           |                 |
+--------------------------+-----------+----------+-----------+-----------------+


1.2 Power Supply Summary
------------------------

+-----------+-------------+-----------+-------------+------------+
| Source    | Voltage (V) | Total (A) | Dynamic (A) | Static (A) |
+-----------+-------------+-----------+-------------+------------+
| Vccint    |       1.000 |     0.047 |       0.039 |      0.007 |
| Vccaux    |       1.800 |     0.012 |       0.000 |      0.012 |
| Vcco33    |       3.300 |     0.001 |       0.000 |      0.001 |
| Vcco25    |       2.500 |     0.000 |       0.000 |      0.000 |
| Vcco18    |       1.800 |     0.001 |       0.000 |      0.001 |
| Vcco15    |       1.500 |     0.001 |       0.000 |      0.001 |
| Vcco135   |       1.350 |     0.000 |       0.000 |      0.000 |
| Vcco12    |       1.200 |     0.000 |       0.000 |      0.000 |
| Vccaux_io |       1.800 |     0.000 |       0.000 |      0.000 |
| Vccbram   |       1.000 |     0.001 |       0.000 |      0.001 |
| MGTAVcc   |       1.000 |     0.000 |       0.000 |      0.000 |
| MGTAVtt   |       1.200 |     0.000 |       0.000 |      0.000 |
| MGTVccaux |       1.800 |     0.000 |       0.000 |      0.000 |
| Vccpint   |       1.000 |     0.738 |       0.707 |      0.031 |
| Vccpaux   |       1.800 |     0.085 |       0.074 |      0.010 |
| Vccpll    |       1.800 |     0.017 |       0.014 |      0.003 |
| Vcco_ddr  |       1.500 |     0.458 |       0.456 |      0.002 |
| Vcco_mio0 |       1.800 |     0.004 |       0.003 |      0.001 |
| Vcco_mio1 |       1.800 |     0.004 |       0.003 |      0.001 |
| Vccadc    |       1.800 |     0.020 |       0.000 |      0.020 |
+-----------+-------------+-----------+-------------+------------+


1.3 Confidence Level
--------------------

+-----------------------------+------------+--------------------------------------------------------+------------------------------------------------------------------------------------------------------------+
| User Input Data             | Confidence | Details                                                | Action                                                                                                     |
+-----------------------------+------------+--------------------------------------------------------+------------------------------------------------------------------------------------------------------------+
| Design implementation state | High       | Design is routed                                       |                                                                                                            |
| Clock nodes activity        | High       | User specified more than 95% of clocks                 |                                                                                                            |
| I/O nodes activity          | Low        | More than 75% of inputs are missing user specification | Provide missing input activity with simulation results or by editing the "By Resource Type -> I/Os" view   |
| Internal nodes activity     | Medium     | User specified less than 25% of internal nodes         | Provide missing internal nodes activity with simulation results or by editing the "By Resource Type" views |
| Device models               | High       | Device models are Production                           |                                                                                                            |
|                             |            |                                                        |                                                                                                            |
| Overall confidence level    | Low        |                                                        |                                                                                                            |
+-----------------------------+------------+--------------------------------------------------------+------------------------------------------------------------------------------------------------------------+


2. Settings
-----------

2.1 Environment
---------------

+-----------------------+------------------------+
| Ambient Temp (C)      | 25.0                   |
| ThetaJA (C/W)         | 11.5                   |
| Airflow (LFM)         | 250                    |
| Heat Sink             | none                   |
| ThetaSA (C/W)         | 0.0                    |
| Board Selection       | medium (10"x10")       |
| # of Board Layers     | 8to11 (8 to 11 Layers) |
| Board Temperature (C) | 25.0                   |
+-----------------------+------------------------+


2.2 Clock Constraints
---------------------

+------------+-------------------------------------------------------------+-----------------+
| Clock      | Domain                                                      | Constraint (ns) |
+------------+-------------------------------------------------------------+-----------------+
| clk_fpga_0 | design_1_i/processing_system7_0/inst/FCLK_CLK_unbuffered[0] |            10.0 |
+------------+-------------------------------------------------------------+-----------------+


3. Detailed Reports
-------------------

3.1 By Hierarchy
----------------

+----------------------------------------------------------------------+-----------+
| Name                                                                 | Power (W) |
+----------------------------------------------------------------------+-----------+
| design_1_wrapper                                                     |     1.599 |
|   design_1_i                                                         |     1.599 |
|     SST_0                                                            |     0.013 |
|       axis_register_slice_0                                          |    <0.001 |
|         inst                                                         |    <0.001 |
|           axisc_register_slice_0                                     |    <0.001 |
|       axis_register_slice_1                                          |    <0.001 |
|         inst                                                         |    <0.001 |
|           axisc_register_slice_0                                     |    <0.001 |
|       axis_register_slice_2                                          |    <0.001 |
|         inst                                                         |    <0.001 |
|           axisc_register_slice_0                                     |    <0.001 |
|       axis_register_slice_3                                          |    <0.001 |
|         inst                                                         |    <0.001 |
|           axisc_register_slice_0                                     |    <0.001 |
|       axis_register_slice_4                                          |    <0.001 |
|         inst                                                         |    <0.001 |
|           axisc_register_slice_0                                     |    <0.001 |
|       channel_0                                                      |    <0.001 |
|         axis_register_slice_0                                        |    <0.001 |
|           inst                                                       |    <0.001 |
|             axisc_register_slice_0                                   |    <0.001 |
|         axis_register_slice_1                                        |    <0.001 |
|           inst                                                       |    <0.001 |
|             axisc_register_slice_0                                   |    <0.001 |
|         splitter_0_0                                                 |    <0.001 |
|           inst                                                       |    <0.001 |
|         splitter_1_0                                                 |    <0.001 |
|           inst                                                       |    <0.001 |
|         splitter_2_0                                                 |    <0.001 |
|           inst                                                       |    <0.001 |
|       demux_0                                                        |    <0.001 |
|         inst                                                         |    <0.001 |
|       kernel_0                                                       |     0.011 |
|         inst                                                         |     0.011 |
|           kernel_dmul_64ns_64ns_64_6_max_dsp_U5                      |     0.006 |
|             kernel_ap_dmul_4_max_dsp_64_u                            |     0.005 |
|               U0                                                     |     0.005 |
|                 i_synth                                              |     0.005 |
|                   MULT.OP                                            |     0.005 |
|                     EXP                                              |    <0.001 |
|                       COND_DET_A                                     |    <0.001 |
|                         MANT_CARRY.MANT_ALL_ZERO_DET                 |    <0.001 |
|                           CARRY_ZERO_DET                             |    <0.001 |
|                       COND_DET_B                                     |    <0.001 |
|                         MANT_CARRY.MANT_ALL_ZERO_DET                 |    <0.001 |
|                           CARRY_ZERO_DET                             |     0.000 |
|                       EXP_ADD.C_CHAIN                                |    <0.001 |
|                       EXP_PRE_RND_DEL                                |    <0.001 |
|                         i_pipe                                       |    <0.001 |
|                       INV_OP_DEL                                     |    <0.001 |
|                         i_pipe                                       |    <0.001 |
|                       IP_SIGN_DELAY                                  |    <0.001 |
|                         i_pipe                                       |    <0.001 |
|                       SIG_DELAY                                      |    <0.001 |
|                         i_pipe                                       |    <0.001 |
|                       STATE_DELAY                                    |    <0.001 |
|                         i_pipe                                       |    <0.001 |
|                     MULT                                             |     0.004 |
|                       DSP48E1_SPD_DBL_VARIANT.FIX_MULT               |     0.004 |
|                         DSP0                                         |    <0.001 |
|                         DSP1                                         |    <0.001 |
|                         DSP2                                         |    <0.001 |
|                         DSP3                                         |    <0.001 |
|                         DSP4                                         |    <0.001 |
|                         DSP5                                         |    <0.001 |
|                         DSP6                                         |    <0.001 |
|                         DSP7                                         |    <0.001 |
|                         DSP8                                         |    <0.001 |
|                         FULL_MAX_USAGE.DSP9                          |     0.001 |
|                         P_0_DEL                                      |    <0.001 |
|                           i_pipe                                     |    <0.001 |
|                         P_1_DEL                                      |    <0.001 |
|                           i_pipe                                     |    <0.001 |
|                         ZD0_DEL                                      |    <0.001 |
|                           i_pipe                                     |    <0.001 |
|                         ZD1_DEL                                      |    <0.001 |
|                           i_pipe                                     |    <0.001 |
|                         ZD2_DEL                                      |    <0.001 |
|                           i_pipe                                     |    <0.001 |
|                     OP                                               |    <0.001 |
|                     R_AND_R                                          |    <0.001 |
|                       LOGIC.R_AND_R                                  |    <0.001 |
|                         DSP48_E1.DSP48E1_ADD.DSP48E1_ADD             |    <0.001 |
|                         DSP48_E1.DSP_LOGIC_ADDERS.RND_0              |    <0.001 |
|                         DSP48_E1.DSP_LOGIC_ADDERS.RND_1              |    <0.001 |
|                         RND_BIT_GEN                                  |     0.000 |
|                           NORM_1_OR_0.STRUCT_REQ.GENERAL.RND1        |     0.000 |
|           kernel_fadd_32ns_32ns_32_5_full_dsp_U1                     |     0.002 |
|             kernel_ap_fadd_3_full_dsp_32_u                           |     0.001 |
|               U0                                                     |     0.001 |
|                 i_synth                                              |     0.001 |
|                   ADDSUB_OP.ADDSUB                                   |     0.001 |
|                     SPEED_OP.DSP.OP                                  |     0.001 |
|                       A_IP_DELAY                                     |    <0.001 |
|                         i_pipe                                       |    <0.001 |
|                       B_IP_DELAY                                     |    <0.001 |
|                         i_pipe                                       |    <0.001 |
|                       DSP48E1_BODY.ALIGN_ADD                         |    <0.001 |
|                         DSP2                                         |    <0.001 |
|                         ZERO_14_DET.CARRY_MUX                        |    <0.001 |
|                         ZERO_14_DET.ZERO_DET                         |    <0.001 |
|                           CARRY_ZERO_DET                             |    <0.001 |
|                         Z_14_LZD_DELAY                               |    <0.001 |
|                           i_pipe                                     |    <0.001 |
|                       DSP48E1_BODY.NORM_RND                          |    <0.001 |
|                         LOD                                          |    <0.001 |
|                         MSBS_DELAY                                   |    <0.001 |
|                           i_pipe                                     |    <0.001 |
|                         ROUND_BIT_DELAY                              |    <0.001 |
|                           i_pipe                                     |    <0.001 |
|                         SHIFT_RND                                    |    <0.001 |
|                       EXP                                            |    <0.001 |
|                         A_EXP_DELAY                                  |    <0.001 |
|                           i_pipe                                     |    <0.001 |
|                         A_SIGN_DELAY                                 |    <0.001 |
|                           i_pipe                                     |    <0.001 |
|                         BMA_EXP_DELAY                                |    <0.001 |
|                           i_pipe                                     |    <0.001 |
|                         B_EXP_DELAY                                  |    <0.001 |
|                           i_pipe                                     |    <0.001 |
|                         B_SIGN_DELAY                                 |    <0.001 |
|                           i_pipe                                     |    <0.001 |
|                         CANCELLATION_DELAY                           |    <0.001 |
|                           i_pipe                                     |    <0.001 |
|                         COND_DET_A                                   |    <0.001 |
|                           EXP_DET_LUT.EXP_ALL_ONE_DEL                |    <0.001 |
|                             i_pipe                                   |    <0.001 |
|                           EXP_DET_LUT.EXP_ALL_ZERO_DEL               |    <0.001 |
|                             i_pipe                                   |    <0.001 |
|                           MANT_CARRY.MANT_ALL_ZERO_DET               |    <0.001 |
|                             CARRY_ZERO_DET                           |    <0.001 |
|                         COND_DET_B                                   |    <0.001 |
|                           EXP_DET_LUT.EXP_ALL_ONE_DEL                |    <0.001 |
|                             i_pipe                                   |    <0.001 |
|                           EXP_DET_LUT.EXP_ALL_ZERO_DEL               |    <0.001 |
|                             i_pipe                                   |    <0.001 |
|                           MANT_CARRY.MANT_ALL_ZERO_DET               |    <0.001 |
|                             CARRY_ZERO_DET                           |    <0.001 |
|                         DET_SIGN_DELAY                               |    <0.001 |
|                           i_pipe                                     |    <0.001 |
|                         EXP_OFF.LRG_EXP_DELAY                        |    <0.001 |
|                           i_pipe                                     |    <0.001 |
|                         EXP_OFF.STRUCT_ADD                           |    <0.001 |
|                         NOT_LOW_LATENCY_NORM_DIST.NORM_EXP_DELAY     |    <0.001 |
|                           i_pipe                                     |    <0.001 |
|                         NUMB_CMP                                     |    <0.001 |
|                           NOT_FAST.CMP                               |    <0.001 |
|                             C_CHAIN                                  |    <0.001 |
|                         STATE_DELAY                                  |    <0.001 |
|                           i_pipe                                     |    <0.001 |
|                         SUB_DELAY                                    |    <0.001 |
|                           i_pipe                                     |    <0.001 |
|           kernel_fadd_32ns_32ns_32_5_full_dsp_U2                     |     0.002 |
|             kernel_ap_fadd_3_full_dsp_32_u                           |     0.001 |
|               U0                                                     |     0.001 |
|                 i_synth                                              |     0.001 |
|                   ADDSUB_OP.ADDSUB                                   |     0.001 |
|                     SPEED_OP.DSP.OP                                  |     0.001 |
|                       A_IP_DELAY                                     |    <0.001 |
|                         i_pipe                                       |    <0.001 |
|                       B_IP_DELAY                                     |    <0.001 |
|                         i_pipe                                       |    <0.001 |
|                       DSP48E1_BODY.ALIGN_ADD                         |    <0.001 |
|                         DSP2                                         |    <0.001 |
|                         ZERO_14_DET.CARRY_MUX                        |    <0.001 |
|                         ZERO_14_DET.ZERO_DET                         |    <0.001 |
|                           CARRY_ZERO_DET                             |    <0.001 |
|                         Z_14_LZD_DELAY                               |    <0.001 |
|                           i_pipe                                     |    <0.001 |
|                       DSP48E1_BODY.NORM_RND                          |    <0.001 |
|                         LOD                                          |    <0.001 |
|                         MSBS_DELAY                                   |    <0.001 |
|                           i_pipe                                     |    <0.001 |
|                         ROUND_BIT_DELAY                              |    <0.001 |
|                           i_pipe                                     |    <0.001 |
|                         SHIFT_RND                                    |    <0.001 |
|                       EXP                                            |    <0.001 |
|                         A_EXP_DELAY                                  |    <0.001 |
|                           i_pipe                                     |    <0.001 |
|                         A_SIGN_DELAY                                 |    <0.001 |
|                           i_pipe                                     |    <0.001 |
|                         BMA_EXP_DELAY                                |    <0.001 |
|                           i_pipe                                     |    <0.001 |
|                         B_EXP_DELAY                                  |    <0.001 |
|                           i_pipe                                     |    <0.001 |
|                         B_SIGN_DELAY                                 |    <0.001 |
|                           i_pipe                                     |    <0.001 |
|                         CANCELLATION_DELAY                           |    <0.001 |
|                           i_pipe                                     |    <0.001 |
|                         COND_DET_A                                   |    <0.001 |
|                           EXP_DET_LUT.EXP_ALL_ONE_DEL                |    <0.001 |
|                             i_pipe                                   |    <0.001 |
|                           EXP_DET_LUT.EXP_ALL_ZERO_DEL               |    <0.001 |
|                             i_pipe                                   |    <0.001 |
|                           MANT_CARRY.MANT_ALL_ZERO_DET               |    <0.001 |
|                             CARRY_ZERO_DET                           |    <0.001 |
|                         COND_DET_B                                   |    <0.001 |
|                           EXP_DET_LUT.EXP_ALL_ONE_DEL                |    <0.001 |
|                             i_pipe                                   |    <0.001 |
|                           EXP_DET_LUT.EXP_ALL_ZERO_DEL               |    <0.001 |
|                             i_pipe                                   |    <0.001 |
|                           MANT_CARRY.MANT_ALL_ZERO_DET               |    <0.001 |
|                             CARRY_ZERO_DET                           |    <0.001 |
|                         DET_SIGN_DELAY                               |    <0.001 |
|                           i_pipe                                     |    <0.001 |
|                         EXP_OFF.LRG_EXP_DELAY                        |    <0.001 |
|                           i_pipe                                     |    <0.001 |
|                         EXP_OFF.STRUCT_ADD                           |    <0.001 |
|                         NOT_LOW_LATENCY_NORM_DIST.NORM_EXP_DELAY     |    <0.001 |
|                           i_pipe                                     |    <0.001 |
|                         NUMB_CMP                                     |    <0.001 |
|                           NOT_FAST.CMP                               |    <0.001 |
|                             C_CHAIN                                  |    <0.001 |
|                         STATE_DELAY                                  |    <0.001 |
|                           i_pipe                                     |    <0.001 |
|                         SUB_DELAY                                    |    <0.001 |
|                           i_pipe                                     |    <0.001 |
|           kernel_fpext_32ns_64_1_U4                                  |    <0.001 |
|             kernel_ap_fpext_0_no_dsp_32_u                            |    <0.001 |
|               U0                                                     |    <0.001 |
|                 i_synth                                              |    <0.001 |
|                   FLT_TO_FLT_OP.SPD.OP                               |    <0.001 |
|                     EXP                                              |    <0.001 |
|                       COND_DET                                       |    <0.001 |
|                         MANT_CARRY.MANT_ALL_ZERO_DET                 |    <0.001 |
|                           CARRY_ZERO_DET                             |    <0.001 |
|           kernel_fptrunc_64ns_32_1_U3                                |    <0.001 |
|             kernel_ap_fptrunc_0_no_dsp_64_u                          |    <0.001 |
|               U0                                                     |    <0.001 |
|                 i_synth                                              |    <0.001 |
|                   FLT_TO_FLT_OP.SPD.OP                               |    <0.001 |
|                     EXP                                              |    <0.001 |
|                       COND_DET                                       |    <0.001 |
|                         MANT_CARRY.MANT_ALL_ZERO_DET                 |    <0.001 |
|                           CARRY_ZERO_DET                             |    <0.001 |
|                     RND_REQ.ROUND                                    |    <0.001 |
|                       EXP_ADD.ADD                                    |    <0.001 |
|                       LOGIC.RND1                                     |    <0.001 |
|                       LOGIC.RND2                                     |    <0.001 |
|                     RND_REQ.Z_DET_REQ.DET_ZERO                       |    <0.001 |
|                       WIDE_NOR                                       |    <0.001 |
|     axi_dma_0                                                        |     0.012 |
|       U0                                                             |     0.012 |
|         I_AXI_DMA_REG_MODULE                                         |     0.001 |
|           GEN_AXI_LITE_IF.AXI_LITE_IF_I                              |    <0.001 |
|           GEN_MM2S_REGISTERS.I_MM2S_DMA_REGISTER                     |    <0.001 |
|           GEN_S2MM_REGISTERS.I_S2MM_DMA_REGISTER                     |    <0.001 |
|         I_MM2S_DMA_MNGR                                              |    <0.001 |
|           GEN_MM2S_DMA_CONTROL.GEN_SIMPLE_DMA_MODE.I_MM2S_SMPL_SM    |    <0.001 |
|           GEN_MM2S_DMA_CONTROL.I_MM2S_CMDSTS                         |    <0.001 |
|           GEN_MM2S_DMA_CONTROL.I_MM2S_STS_MNGR                       |    <0.001 |
|         I_PRMRY_DATAMOVER                                            |     0.010 |
|           GEN_MM2S_FULL.I_MM2S_FULL_WRAPPER                          |     0.005 |
|             ENABLE_AXIS_SKID.I_MM2S_SKID_BUF                         |    <0.001 |
|             GEN_INCLUDE_MM2S_SF.I_RD_SF                              |     0.003 |
|               I_DATA_FIFO                                            |     0.003 |
|                 BLK_MEM.I_SYNC_FIFOGEN_FIFO                          |     0.003 |
|                   FAMILY_SUPPORTED.I_SYNC_FIFO_BRAM                  |     0.003 |
|                     inst_fifo_gen                                    |     0.003 |
|                       gconvfifo.rf                                   |     0.003 |
|                         grf.rf                                       |     0.003 |
|                           gntv_or_sync_fifo.gl0.rd                   |    <0.001 |
|                             gr1.rfwft                                |    <0.001 |
|                             grss.gdc.dc                              |    <0.001 |
|                               gsym_dc.dc                             |    <0.001 |
|                             grss.rsts                                |    <0.001 |
|                             rpntr                                    |    <0.001 |
|                           gntv_or_sync_fifo.gl0.wr                   |    <0.001 |
|                             gwss.wsts                                |    <0.001 |
|                             wpntr                                    |    <0.001 |
|                           gntv_or_sync_fifo.mem                      |     0.003 |
|                             gbm.gbmg.gbmgb.ngecc.bmg                 |     0.003 |
|                               inst_blk_mem_gen                       |     0.003 |
|                                 gnativebmg.native_blk_mem_gen        |     0.003 |
|                                   valid.cstr                         |     0.003 |
|                                     ramloop[0].ram.r                 |     0.003 |
|                                       prim_noinit.ram                |     0.003 |
|               OMIT_DRE_CNTL.I_DRE_CNTL_FIFO                          |    <0.001 |
|                 USE_SRL_FIFO.I_SYNC_FIFO                             |    <0.001 |
|                   I_SRL_FIFO_RBU_F                                   |    <0.001 |
|                     CNTR_INCR_DECR_ADDN_F_I                          |    <0.001 |
|             I_ADDR_CNTL                                              |    <0.001 |
|             I_CMD_STATUS                                             |    <0.001 |
|               GEN_INCLUDE_STATUS_FIFO.I_STS_FIFO                     |    <0.001 |
|               I_CMD_FIFO                                             |    <0.001 |
|             I_MSTR_PCC                                               |    <0.001 |
|             I_RD_DATA_CNTL                                           |    <0.001 |
|             I_RD_STATUS_CNTLR                                        |    <0.001 |
|             I_RESET                                                  |    <0.001 |
|           GEN_S2MM_FULL.I_S2MM_FULL_WRAPPER                          |     0.005 |
|             ENABLE_AXIS_SKID.I_S2MM_STRM_SKID_BUF                    |    <0.001 |
|             GEN_ENABLE_INDET_BTT_SF.I_INDET_BTT                      |    <0.001 |
|               ENABLE_AXIS_SKID.I_INDET_BTT_SKID_BUF                  |    <0.001 |
|               I_DATA_FIFO                                            |    <0.001 |
|                 BLK_MEM.I_SYNC_FIFOGEN_FIFO                          |    <0.001 |
|                   FAMILY_SUPPORTED.I_SYNC_FIFO_BRAM                  |    <0.001 |
|                     inst_fifo_gen                                    |    <0.001 |
|                       gconvfifo.rf                                   |    <0.001 |
|                         grf.rf                                       |    <0.001 |
|                           gntv_or_sync_fifo.gl0.rd                   |    <0.001 |
|                             gr1.rfwft                                |    <0.001 |
|                             grss.rsts                                |    <0.001 |
|                             rpntr                                    |    <0.001 |
|                           gntv_or_sync_fifo.gl0.wr                   |    <0.001 |
|                             gwss.wsts                                |    <0.001 |
|                             wpntr                                    |    <0.001 |
|                           gntv_or_sync_fifo.mem                      |    <0.001 |
|                             gbm.gbmg.gbmgb.ngecc.bmg                 |    <0.001 |
|                               inst_blk_mem_gen                       |    <0.001 |
|                                 gnativebmg.native_blk_mem_gen        |    <0.001 |
|                                   valid.cstr                         |    <0.001 |
|                                     ramloop[0].ram.r                 |    <0.001 |
|                                       prim_noinit.ram                |    <0.001 |
|               I_XD_FIFO                                              |    <0.001 |
|                 NON_BLK_MEM.I_SYNC_FIFOGEN_FIFO                      |    <0.001 |
|                   FAMILY_SUPPORTED.I_SYNC_FIFO_BRAM                  |    <0.001 |
|                     inst_fifo_gen                                    |    <0.001 |
|                       gconvfifo.rf                                   |    <0.001 |
|                         grf.rf                                       |    <0.001 |
|                           gntv_or_sync_fifo.gl0.rd                   |    <0.001 |
|                             grhf.rhf                                 |    <0.001 |
|                             grss.gdc.dc                              |    <0.001 |
|                               gsym_dc.dc                             |    <0.001 |
|                             grss.rsts                                |    <0.001 |
|                             rpntr                                    |    <0.001 |
|                           gntv_or_sync_fifo.gl0.wr                   |    <0.001 |
|                             gwss.wsts                                |    <0.001 |
|                             wpntr                                    |    <0.001 |
|                           gntv_or_sync_fifo.mem                      |    <0.001 |
|                             gdm.dm                                   |    <0.001 |
|                               RAM_reg_0_7_0_5                        |    <0.001 |
|                               RAM_reg_0_7_6_8                        |    <0.001 |
|             GEN_INCLUDE_IBTTCC.I_S2MM_MSTR_IBTTCC                    |     0.001 |
|             GEN_INCLUDE_REALIGNER.I_S2MM_REALIGNER                   |     0.001 |
|               GEN_INCLUDE_SCATTER.I_S2MM_SCATTER                     |     0.001 |
|                 I_MSSAI_SKID_BUF                                     |    <0.001 |
|                 I_TSTRB_FIFO                                         |    <0.001 |
|                   USE_SRL_FIFO.I_SYNC_FIFO                           |    <0.001 |
|                     I_SRL_FIFO_RBU_F                                 |    <0.001 |
|                       CNTR_INCR_DECR_ADDN_F_I                        |    <0.001 |
|                       DYNSHREG_F_I                                   |    <0.001 |
|                 SLICE_INSERTION                                      |    <0.001 |
|               I_DRE_CNTL_FIFO                                        |    <0.001 |
|                 USE_SRL_FIFO.I_SYNC_FIFO                             |    <0.001 |
|                   I_SRL_FIFO_RBU_F                                   |    <0.001 |
|                     CNTR_INCR_DECR_ADDN_F_I                          |    <0.001 |
|                     DYNSHREG_F_I                                     |    <0.001 |
|             I_ADDR_CNTL                                              |    <0.001 |
|             I_CMD_STATUS                                             |    <0.001 |
|               GEN_INCLUDE_STATUS_FIFO.I_STS_FIFO                     |    <0.001 |
|               I_CMD_FIFO                                             |    <0.001 |
|             I_RESET                                                  |    <0.001 |
|             I_S2MM_MMAP_SKID_BUF                                     |    <0.001 |
|             I_WR_DATA_CNTL                                           |    <0.001 |
|             I_WR_STATUS_CNTLR                                        |    <0.001 |
|               GEN_ENABLE_INDET_BTT.I_SF_DATA_CNTL_STATUS_FIFO        |    <0.001 |
|                 USE_SRL_FIFO.I_SYNC_FIFO                             |    <0.001 |
|                   I_SRL_FIFO_RBU_F                                   |    <0.001 |
|                     CNTR_INCR_DECR_ADDN_F_I                          |    <0.001 |
|                     DYNSHREG_F_I                                     |    <0.001 |
|               I_WRESP_STATUS_FIFO                                    |    <0.001 |
|                 USE_SRL_FIFO.I_SYNC_FIFO                             |    <0.001 |
|                   I_SRL_FIFO_RBU_F                                   |    <0.001 |
|                     CNTR_INCR_DECR_ADDN_F_I                          |    <0.001 |
|                     DYNSHREG_F_I                                     |    <0.001 |
|         I_RST_MODULE                                                 |    <0.001 |
|           GEN_RESET_FOR_MM2S.RESET_I                                 |    <0.001 |
|           GEN_RESET_FOR_S2MM.RESET_I                                 |    <0.001 |
|           REG_HRD_RST                                                |    <0.001 |
|           REG_HRD_RST_OUT                                            |    <0.001 |
|         I_S2MM_DMA_MNGR                                              |    <0.001 |
|           GEN_S2MM_DMA_CONTROL.GEN_SIMPLE_DMA_MODE.I_S2MM_SMPL_SM    |    <0.001 |
|           GEN_S2MM_DMA_CONTROL.I_S2MM_CMDSTS                         |    <0.001 |
|           GEN_S2MM_DMA_CONTROL.I_S2MM_STS_MNGR                       |    <0.001 |
|     axi_mem_intercon                                                 |     0.008 |
|       m00_couplers                                                   |     0.003 |
|         auto_pc                                                      |     0.003 |
|           inst                                                       |     0.003 |
|             gen_axi4_axi3.axi3_conv_inst                             |     0.003 |
|               USE_READ.USE_SPLIT_R.read_addr_inst                    |     0.001 |
|                 USE_R_CHANNEL.cmd_queue                              |    <0.001 |
|                   inst                                               |    <0.001 |
|                     fifo_gen_inst                                    |    <0.001 |
|                       inst_fifo_gen                                  |    <0.001 |
|                         gconvfifo.rf                                 |    <0.001 |
|                           grf.rf                                     |    <0.001 |
|                             gntv_or_sync_fifo.gl0.rd                 |    <0.001 |
|                               gr1.rfwft                              |    <0.001 |
|                               grss.rsts                              |    <0.001 |
|                               rpntr                                  |    <0.001 |
|                             gntv_or_sync_fifo.gl0.wr                 |    <0.001 |
|                               gwss.wsts                              |    <0.001 |
|                               wpntr                                  |    <0.001 |
|                             gntv_or_sync_fifo.mem                    |    <0.001 |
|                               gdm.dm                                 |    <0.001 |
|                                 RAM_reg_0_31_0_0                     |    <0.001 |
|                             rstblk                                   |    <0.001 |
|               USE_WRITE.USE_SPLIT_W.write_resp_inst                  |    <0.001 |
|               USE_WRITE.write_addr_inst                              |     0.002 |
|                 USE_BURSTS.cmd_queue                                 |    <0.001 |
|                   inst                                               |    <0.001 |
|                     fifo_gen_inst                                    |    <0.001 |
|                       inst_fifo_gen                                  |    <0.001 |
|                         gconvfifo.rf                                 |    <0.001 |
|                           grf.rf                                     |    <0.001 |
|                             gntv_or_sync_fifo.gl0.rd                 |    <0.001 |
|                               gr1.rfwft                              |    <0.001 |
|                               grss.rsts                              |    <0.001 |
|                               rpntr                                  |    <0.001 |
|                             gntv_or_sync_fifo.gl0.wr                 |    <0.001 |
|                               gwss.wsts                              |    <0.001 |
|                               wpntr                                  |    <0.001 |
|                             gntv_or_sync_fifo.mem                    |    <0.001 |
|                               gdm.dm                                 |    <0.001 |
|                                 RAM_reg_0_31_0_4                     |    <0.001 |
|                             rstblk                                   |    <0.001 |
|                 USE_B_CHANNEL.cmd_b_queue                            |    <0.001 |
|                   inst                                               |    <0.001 |
|                     fifo_gen_inst                                    |    <0.001 |
|                       inst_fifo_gen                                  |    <0.001 |
|                         gconvfifo.rf                                 |    <0.001 |
|                           grf.rf                                     |    <0.001 |
|                             gntv_or_sync_fifo.gl0.rd                 |    <0.001 |
|                               gr1.rfwft                              |    <0.001 |
|                               grss.rsts                              |    <0.001 |
|                               rpntr                                  |    <0.001 |
|                             gntv_or_sync_fifo.gl0.wr                 |    <0.001 |
|                               gwss.wsts                              |    <0.001 |
|                               wpntr                                  |    <0.001 |
|                             gntv_or_sync_fifo.mem                    |    <0.001 |
|                               gdm.dm                                 |    <0.001 |
|                                 RAM_reg_0_31_0_4                     |    <0.001 |
|                             rstblk                                   |    <0.001 |
|               USE_WRITE.write_data_inst                              |    <0.001 |
|       s00_couplers                                                   |     0.001 |
|         auto_us                                                      |     0.001 |
|           inst                                                       |     0.001 |
|             gen_upsizer.gen_full_upsizer.axi_upsizer_inst            |     0.001 |
|               USE_READ.gen_non_fifo_r_upsizer.mi_register_slice_inst |    <0.001 |
|                 r_pipe                                               |    <0.001 |
|               USE_READ.gen_non_fifo_r_upsizer.read_data_inst         |    <0.001 |
|               USE_READ.read_addr_inst                                |    <0.001 |
|                 GEN_CMD_QUEUE.cmd_queue                              |    <0.001 |
|               si_register_slice_inst                                 |    <0.001 |
|                 ar_pipe                                              |    <0.001 |
|       s01_couplers                                                   |     0.001 |
|         auto_us                                                      |     0.001 |
|           inst                                                       |     0.001 |
|             gen_upsizer.gen_full_upsizer.axi_upsizer_inst            |     0.001 |
|               USE_WRITE.gen_non_fifo_w_upsizer.write_data_inst       |    <0.001 |
|               USE_WRITE.write_addr_inst                              |    <0.001 |
|                 GEN_CMD_QUEUE.cmd_queue                              |    <0.001 |
|               si_register_slice_inst                                 |    <0.001 |
|                 aw_pipe                                              |    <0.001 |
|       xbar                                                           |     0.003 |
|         inst                                                         |     0.003 |
|           gen_samd.crossbar_samd                                     |     0.002 |
|             addr_arbiter_ar                                          |    <0.001 |
|             addr_arbiter_aw                                          |    <0.001 |
|             gen_decerr_slave.decerr_slave_inst                       |    <0.001 |
|             gen_master_slots[0].gen_mi_write.wdata_mux_w             |    <0.001 |
|               gen_wmux.wmux_aw_fifo                                  |    <0.001 |
|                 gen_srls[0].gen_rep[0].srl_nx1                       |    <0.001 |
|             gen_master_slots[0].reg_slice_mi                         |    <0.001 |
|               b_pipe                                                 |    <0.001 |
|               r_pipe                                                 |    <0.001 |
|             gen_master_slots[1].gen_mi_write.wdata_mux_w             |    <0.001 |
|               gen_wmux.wmux_aw_fifo                                  |    <0.001 |
|                 gen_srls[0].gen_rep[0].srl_nx1                       |    <0.001 |
|             gen_master_slots[1].reg_slice_mi                         |    <0.001 |
|               b_pipe                                                 |    <0.001 |
|               r_pipe                                                 |    <0.001 |
|             gen_slave_slots[0].gen_si_read.si_transactor_ar          |    <0.001 |
|             gen_slave_slots[1].gen_si_write.si_transactor_aw         |    <0.001 |
|             gen_slave_slots[1].gen_si_write.splitter_aw_si           |    <0.001 |
|             gen_slave_slots[1].gen_si_write.wdata_router_w           |    <0.001 |
|               wrouter_aw_fifo                                        |    <0.001 |
|                 gen_srls[0].gen_rep[0].srl_nx1                       |    <0.001 |
|             splitter_aw_mi                                           |    <0.001 |
|     processing_system7_0                                             |     1.560 |
|       inst                                                           |     1.560 |
|     processing_system7_0_axi_periph                                  |     0.005 |
|       s00_couplers                                                   |     0.005 |
|         auto_pc                                                      |     0.005 |
|           inst                                                       |     0.005 |
|             gen_axilite.gen_b2s_conv.axilite_b2s                     |     0.005 |
|               RD.ar_channel_0                                        |    <0.001 |
|                 ar_cmd_fsm_0                                         |    <0.001 |
|                 cmd_translator_0                                     |    <0.001 |
|                   incr_cmd_0                                         |    <0.001 |
|                   wrap_cmd_0                                         |    <0.001 |
|               RD.r_channel_0                                         |     0.002 |
|                 rd_data_fifo_0                                       |     0.001 |
|                 transaction_fifo_0                                   |    <0.001 |
|               SI_REG                                                 |     0.001 |
|                 ar_pipe                                              |    <0.001 |
|                 aw_pipe                                              |    <0.001 |
|                 b_pipe                                               |    <0.001 |
|                 r_pipe                                               |    <0.001 |
|               WR.aw_channel_0                                        |    <0.001 |
|                 aw_cmd_fsm_0                                         |    <0.001 |
|                 cmd_translator_0                                     |    <0.001 |
|                   incr_cmd_0                                         |    <0.001 |
|                   wrap_cmd_0                                         |    <0.001 |
|               WR.b_channel_0                                         |    <0.001 |
|                 bid_fifo_0                                           |    <0.001 |
|                 bresp_fifo_0                                         |    <0.001 |
|     rst_processing_system7_0_100M                                    |    <0.001 |
|       U0                                                             |    <0.001 |
|         EXT_LPF                                                      |    <0.001 |
|           ACTIVE_LOW_EXT.ACT_LO_EXT                                  |    <0.001 |
|         SEQ                                                          |    <0.001 |
|           SEQ_COUNTER                                                |    <0.001 |
+----------------------------------------------------------------------+-----------+


