Design Route Status
                                               :      # nets :
   ------------------------------------------- : ----------- :
   # of logical nets.......................... :       14233 :
       # of nets not needing routing.......... :        5445 :
           # of internally routed nets........ :        3203 :
           # of nets with no loads............ :        2242 :
       # of routable nets..................... :        8788 :
           # of fully routed nets............. :        8788 :
       # of nets with routing errors.......... :           0 :
   ------------------------------------------- : ----------- :

